{
	"name": "Mini Masterz",
	"source": "internal",
	"types": [
		"DEF",
		"DEF",
		"DEF",
		"DEF",
		"DEF",
		"DEF",
		"DEF",
		"DEF",
		"ALT",
		"ALT",
		"ALT",
		"ALT",
		"ALT",
		"ALT",
		"ALT",
		"ALT",
		"ALT_B",
		"ALT_BL_X",
		"ALT_BR_X",
		"ALT_BR",
		"ALT_BL",
		"ALT_L",
		"ALT_R",
		"ALT_TR",
		"ALT_TL",
		"ALT_TR_X",
		"ALT_T",
		"ALT_TL_X",
		"HILL_BR",
		"HILL_BR_DIAG",
		"HILL_B",
		"HILL_BL_DIAG",
		"HILL_BL",
		"HILL_BR_DIAG_X",
		"HILL_BR_X",
		"HILL_BL_X",
		"HILL_BL_DIAG_X",
		"HILL_TR_DIAG",
		"HILL_R",
		"HILL_R_Y",
		"HILL_L_Y",
		"HILL_L",
		"HILL_TR_DIAG_X",
		"HILL_TL_DIAG_X",	
		"HILL_TR_DIAG",
		"HILL_TR_DIAG_Y",
		"HILL_TR",
		"HILL_TL",
		"HILL_TL_DIAG_Y",
		"HILL_TL_DIAG_X",
		"HILL_TR",
		"HILL_TR_Y",
		"HILL_T",
		"HILL_TL_Y",
		"HILL_TL",
		"ROCK",
		"ROCK",
		"ROCK",
		"ROCK",
		"ROCK_ALT",
		"ROCK_ALT",
		"ROCK_ALT",
		"ROCK_ALT",
		"DEATH_BR",
		"DEATH_BR_DIAG",
		"DEATH_B",
		"DEATH_BL_DIAG",
		"DEATH_BL",
		"DEATH_BR_X",
		"DEATH_BL_X",
		"DEATH_BL_DIAG_X",
		"DEATH_BR_DIAG",
		"DEATH_L",
		"DEATH",
		"DEATH_R",
		"DEATH_TR_DIAG_X",
		"DEATH_TL_DIAG_X",
		"DEATH_TR_DIAG",
		"DEATH_TR_X",
		"DEATH_TL_X",
		"DEATH_TL_DIAG",
		"DEATH_TR",
		"DEAT_T",
		"DEATH_TL",
		"WATER_BR",
		"WATER_BL",
		"WATER_BR_DIAG",
		"WATER_B",
		"WATER_BL_DIAG",
		"WATER_BR_DIAG_X",
		"WATER_BL_X",
		"WATER_BR_X",
		"WATER_BL_DIAG_X",
		"WATER_R",
		"WATER_R_Y",
		"WATER_BR_DIAG_Y",
		"WATER",
		"WATER_BL_DIAG_Y",
		"WATER_L_Y",
		"WATER_L",
		"WATER_TR_DIAG",
		"WATER_TR_DIAG_X",
		"WATER_TR_X",
		"WATER_TL_X",
		"WATER_TL_DIAG_X",
		"WATER_TL_DIAG",
		"WATER_T",
		"WATER_TR",
		"WATER_TL",
		"SPIKEZ",
		"SPIKEZ_ALT",
		"FHOLE",
		"HOLE",
		"FHOLE_ALT",
		"HOLE_ALT",
		"BLIP",
		"BLIP_ALT",
		"BRIDGE",
		"BRIDGE_LO",
		"DBRIDGE",
		"DBRIDGE_LO",
		"CRUMBLE",
		"DCRUMBLE",
		"BRIDGE_HIP",
		"BRIDGE_LOP",
		"DBRIDGE_HIP",
		"DBRIDGE_LOP",
		"TSTAIRS_L",
		"TSTAIRS",
		"TSTAIRS_R",
		"BSTAIRS_L",
		"BSTAIRS",
		"BSTAIRS_R",
		"LSTAIRS_T",
		"RSTAIRS_T",
		"LSTAIRS",
		"RSTAIRS",
		"LSTAIRS_B",
		"RSTAIRS_B",
		"STEP_T",
		"STEP_L",
		"STEP_R",
		"STEP_B",
		"GROCK_TL",
		"GROCK_T",
		"GROCK_TR",
		"GROCK_L",
		"GROCK",
		"GROCK_R",
		"GROCK_BL",
		"GROCK_B",
		"GROCK_BR"
	],
	"area": "AREA7",
	"rez": [1, 2, 3, 4, 5, 6, 7, 8, 9, 10, 11, 12, 13, 14, 15, 16,
	        18, 20, 21, 22, 23, 26, 27, 30, 31, 33,
			34, 36, 39, 40, 41, 43, 44, 46, 47, 48, 49, 50, 51, 
			52, 55, 56, 59, 60,	63, 64, 65, 66, 67, 68, 69, 70,
			71, 73, 74, 77, 78, 79, 80, 81, 82, 83, 84,
			99, 100, 101, 103, 104, 106, 107, 108, 109, 111, 
			114, 117, 121, 124, 127, 129, 130, 132, 133, 134, 138,
			142, 143, 144, 145, 147, 149, 150, 151, 152, 154, 155, 156, 157,
			159, 160, 161, 170, 171, 172, 173, 174, 175, 177, 180, 181,
			191, 192, 195, 196, 197, 198, 199, 200, 257, 258,
			259, 260, 261, 262, 263, 264, 265, 266, 270, 271, 272,
			273, 274, 275, 276, 277, 278, 279, 280, 281, 282, 283,
			284, 285, 286, 287, 288, 289, 290, 291, 292, 293, 294],
	"rezMapping": {
		"17": 21,
		"19": 18,
		"24": 20,
		"25": 27,
		"28": 26,
		"29": 33,
		"32": 36,
		"35": 34,
		"42": 41,
		"45": 40,
		"50": 43,
		"53": 46,
		"54": 49,
		"57": 51,
		"58": 51,
		"61": 56,
		"62": 56,
		"72": 71,
		"75": 71,
		"76": 71,
		"90": 1,
		"91": 9,
		"102": 101,
		"105": 100,
		"110": 103,
		"113": 106,
		"115": 114,
		"116": 109,
		"112": 111,
		"118": 117,
		"119": 111,
		"120": 111,
		"122": 114,
		"123": 114,
		"125": 117,
		"126": 117,
		"128": 121,
		"131": 124,
		"134": 127,
		"135": 134,
		"136": 134,
		"137": 134,
		"139": 114,
		"140": 114,
		"146": 145,
		"148": 144,
		"153": 147,
		"158": 157,
		"162": 154,
		"163": 154,
		"164": 171,
		"165": 157,
		"166": 177,
		"167": 174,
		"168": 161,
		"169": 161,
		"176": 170,
		"178": 177,
		"179": 175
	}
}
